<?xml version="1.0" encoding="UTF-8" standalone="no"?>
<!-- Created with Inkscape (http://www.inkscape.org/) -->

<svg
   xmlns:dc="http://purl.org/dc/elements/1.1/"
   xmlns:cc="http://creativecommons.org/ns#"
   xmlns:rdf="http://www.w3.org/1999/02/22-rdf-syntax-ns#"
   xmlns:svg="http://www.w3.org/2000/svg"
   xmlns="http://www.w3.org/2000/svg"
   xmlns:sodipodi="http://sodipodi.sourceforge.net/DTD/sodipodi-0.dtd"
   xmlns:inkscape="http://www.inkscape.org/namespaces/inkscape"
   width="500"
   height="500"
   viewBox="0 0 132.29167 132.29167"
   version="1.1"
   id="svg8"
   inkscape:version="0.92.4 5da689c313, 2019-01-14"
   sodipodi:docname="manjaro-x-logo.svg"
   style="enable-background:new"
   inkscape:export-filename="/home/hervyqa/Dokumen/git/manjaro-x-web/themes/serviceSite/static/icons/icon-64x64.png"
   inkscape:export-xdpi="12.288"
   inkscape:export-ydpi="12.288">
  <defs
     id="defs2" />
  <sodipodi:namedview
     id="base"
     pagecolor="#ffffff"
     bordercolor="#666666"
     borderopacity="1.0"
     inkscape:pageopacity="0.0"
     inkscape:pageshadow="2"
     inkscape:zoom="1.108"
     inkscape:cx="201.26354"
     inkscape:cy="250"
     inkscape:document-units="px"
     inkscape:current-layer="layer2"
     showgrid="false"
     units="px"
     borderlayer="true"
     inkscape:pagecheckerboard="true"
     inkscape:window-width="1348"
     inkscape:window-height="726"
     inkscape:window-x="8"
     inkscape:window-y="32"
     inkscape:window-maximized="1"
     inkscape:snap-global="true">
    <inkscape:grid
       type="xygrid"
       id="grid815"
       dotted="false"
       originx="0"
       originy="-2.5807523e-05" />
  </sodipodi:namedview>
  <metadata
     id="metadata5">
    <rdf:RDF>
      <cc:Work
         rdf:about="">
        <dc:format>image/svg+xml</dc:format>
        <dc:type
           rdf:resource="http://purl.org/dc/dcmitype/StillImage" />
        <dc:title></dc:title>
        <dc:date />
        <dc:creator>
          <cc:Agent>
            <dc:title />
          </cc:Agent>
        </dc:creator>
        <dc:subject>
          <rdf:Bag />
        </dc:subject>
        <dc:description />
        <cc:license
           rdf:resource="" />
      </cc:Work>
    </rdf:RDF>
  </metadata>
  <g
     inkscape:groupmode="layer"
     id="layer2"
     inkscape:label="artwork"
     transform="translate(0,-608.54164)">
    <g
       id="g16"
       transform="matrix(1.1876949,0,0,1.1876949,-12.415237,-126.63571)">
      <path
         inkscape:connector-curvature="0"
         id="path874"
         d="m 66.145835,618.99512 -48.231263,27.84596 v 55.69285 l 29.791878,17.2004 v -4.41743 -51.11622 l 18.455536,-10.8952 13.729404,8.10576 v -34.48017 z"
         style="opacity:1;vector-effect:none;fill:#204a87;fill-opacity:1;stroke:none;stroke-width:5.47233868;stroke-linecap:butt;stroke-linejoin:miter;stroke-miterlimit:4;stroke-dasharray:none;stroke-dashoffset:0;stroke-opacity:1" />
      <path
         inkscape:connector-curvature="0"
         id="path872"
         d="m 84.615674,629.65867 v 55.4912 34.56692 L 114.3771,702.53393 v -55.69285 z"
         style="opacity:1;vector-effect:none;fill:#204a87;fill-opacity:1;stroke:none;stroke-width:5.47233868;stroke-linecap:butt;stroke-linejoin:miter;stroke-miterlimit:4;stroke-dasharray:none;stroke-dashoffset:0;stroke-opacity:1" />
      <path
         inkscape:connector-curvature="0"
         id="path12"
         d="m 66.161986,658.79207 -13.730789,8.10668 v 48.41815 7.1455 l 13.714638,7.91795 13.745555,-7.93595 v -37.29453 -18.25158 z"
         style="opacity:1;vector-effect:none;fill:#3584e4;fill-opacity:1;stroke:none;stroke-width:1.4430145;stroke-linecap:butt;stroke-linejoin:miter;stroke-miterlimit:4;stroke-dasharray:none;stroke-dashoffset:0;stroke-opacity:1" />
    </g>
  </g>
</svg>
